"id","code","name"
"1","A","Agréée"
"2","D","Déclarée 1901"
"3","I","Intérêt Général"
"4","R","???"
"5","U","Utilité Publique"
"6","B","???"
"7","G","???"
"8","M","???"
"9","L","???"
"10","C","???"
"11","X","???"
"12","S","???"
"13","N","???"
"14","J","???"
"15","W","???"
"16","Z","???"
